[gd_scene load_steps=3 format=2]

[ext_resource path="res://src/SwarmTrigger.gd" type="Script" id=1]

[sub_resource type="CircleShape2D" id=1]
radius = 800.0

[node name="SwarmTrigger" type="Area2D"]
script = ExtResource( 1 )

[node name="CollisionShape2D" type="CollisionShape2D" parent="."]
shape = SubResource( 1 )

[connection signal="body_entered" from="." to="." method="_on_SwarmTrigger_body_entered"]
